604178 721891
419637 272174
325472 492044
369716 311423
166554 484409
495673 20877
269776 568540
825605 997657
67514 720361
948099 596251
281686 192443
456728 652877
60407 64340
164848 32599
269015 746988
296370 295018
720624 679509
697680 466292
595960 697136
152345 45429
512785 497170
612181 164568
603497 509379
450506 81767
190129 613624
98031 791486
34138 302967
947958 621207
686798 687723
490687 272946
781357 938368
980516 869399
721175 774682
312274 196114
798215 208098
804495 546478
930542 524791
158997 467261
407774 356323
826646 175148
230231 142402
589253 863474
572374 166860
970589 290830
405859 863887
724495 528325
936513 55826
282280 939398
957401 793711
411810 361028
450100 43740
119146 484762
671153 447801
366759 719713
668281 971730
491040 592556
161025 485137
969227 677647
389221 354008
272059 561311
475161 651752
831550 324789
670782 502658
852764 776835
77026 899286
110110 489383
864294 753307
548986 541403
176945 560523
728862 773837
445259 26694
742272 107569
270582 305487
338402 566041
219614 962756
714110 672523
755994 388047
799772 65027
45230 140895
259057 538580
12521 908161
49304 254107
93877 121015
162515 197093
553619 66377
883412 557321
622683 160296
792585 520712
117673 321356
14934 77274
89252 242389
49005 84975
305651 536149
324202 379444
823212 913421
260653 564333
901819 298281
295572 719412
808136 582584
211687 991228
259057 504206
100772 458370
63799 434722
431344 907212
269155 913569
805115 161200
483326 954335
175981 231033
524745 226287
259230 704865
336185 449440
608365 513464
211720 710024
772484 287728
958665 524528
692980 746825
541729 333226
165542 214814
502579 354013
533761 690746
718445 904037
75198 985428
910186 165729
664054 990189
81679 782511
969454 574521
91161 6348
447723 164249
672031 626888
341890 484807
20613 527780
256753 845822
160542 872051
130487 333763
137082 354361
669368 8240
352182 943793
182545 12515
981685 194711
29464 1007
226721 954573
934070 568388
242458 908705
746753 374713
898109 908065
389243 762891
339376 435305
581839 426880
972176 559261
465315 617169
766818 183470
262362 775331
560030 672647
816850 780888
245975 758335
38410 925204
350873 305108
918719 848593
837186 416499
590731 284467
976255 726843
501506 399041
157513 787645
249190 525740
656743 654009
911020 972932
708687 177088
131046 401688
443675 711728
155134 212950
178853 505493
128866 799910
297052 133837
336154 626035
493942 243166
397386 785563
820996 747122
526531 807759
553153 288493
583059 335138
361886 704839
810 875971
483389 842584
134086 454594
308541 138700
112562 343517
872546 757227
221927 249003
695391 16414
73730 885451
902563 6402
605355 133083
654351 908790
702644 61190
527541 10214
297826 524972
461056 32039
458925 236131
43936 332367
824965 481712
29122 847928
5292 866136
975374 576775
948721 197214
571902 177103
66563 349325
682728 913138
568756 206522
726100 682435
170003 99776
892947 915373
115858 542072
273646 196771
201267 133455
858045 996314
664681 356655
934754 556610
145064 561999
484269 590924
54844 969658
939037 482271
113704 589188
295347 981916
955025 499121
445955 175695
917718 696118
252031 967389
201185 427604
954771 172621
491193 814952
709962 426326
480540 804606
588579 624889
966346 175359
324732 828452
594319 761237
941178 293570
421521 786156
421804 467963
909180 595222
121470 496435
976098 176625
490214 289231
171574 280817
668049 74648
56519 263075
6970 634590
746387 71224
867877 544087
617568 771591
194435 287306
490058 221005
225159 244849
941450 781397
738455 229092
165192 532127
636805 908485
492128 558682
443814 712244
187077 424009
269439 718537
570436 120032
442957 90993
236646 517955
226669 149805
