9514 173388 383
917584 589768 525
199572 883677 525
389380 553941 470
504060 395762 449
127895 749739 509
744892 396422 509
153028 194917 383
278006 594685 470
913820 180855 525
644508 258815 509
10440 475132 449
811078 303624 509
870143 8586 525
237904 970474 525
289696 87092 443
210923 853328 525
700684 331910 509
445532 243957 449
852485 497729 525
612849 806006 509
143675 310618 443
103771 600904 470
2382 214528 383
126242 673572 509
780923 35722 509
615203 800242 509
203642 534023 470
842944 922141 476
399100 849731 525
700961 648465 442
639959 647132 416
765035 807421 468
743202 213325 509
288094 380991 441
817849 128170 509
513655 200150 470
403733 333890 441
857434 927215 476
97097 986830 525
62326 924872 525
858940 242249 525
627382 969525 525
512354 70269 470
769412 780287 437
361826 926088 525
35005 755223 509
887974 85885 525
11707 77278 351
608362 644124 509
929536 239515 525
406763 310105 441
19670 964821 525
471979 969066 525
939008 217302 525
776174 280932 509
955990 435464 525
21778 304325 443
184853 927668 525
190427 64723 383
684685 151519 509
444621 754230 509
713707 244984 509
485994 894197 525
72257 314851 443
894128 96828 525
733976 19163 509
764316 166124 509
967945 61946 525
559243 410263 470
21708 122287 354
234199 55454 443
954143 978926 458
610808 125530 470
348480 369593 410
807814 421744 509
846267 416857 525
963364 104480 525
739942 536591 509
598151 273625 470
51816 586528 470
222611 804265 509
100459 819623 509
158167 133 383
613083 37366 470
268013 519584 470
363658 887961 525
24471 256830 443
130334 940228 525
299757 385850 441
877563 889977 445
684906 877963 525
936287 132675 525
138424 743015 509
654295 666337 442
901147 999336 507
90780 986221 525
451132 351869 449
783457 211825 509
406816 268345 441
450869 51610 449
587651 196006 470
92039 381320 443
628893 931374 525
22142 575310 470
259653 850231 525
269444 852783 525
630580 854393 525
24936 542823 470
763480 842884 525
441373 566913 470
819323 953420 525
247229 99801 443
563766 91948 470
473938 243231 449
284015 576114 470
687963 500638 509
319304 254360 407
778594 346967 509
200381 918713 525
441218 742984 509
417170 132961 449
772281 695431 504
292304 259088 407
994340 487736 525
185661 435358 449
130002 926651 525
913299 64088 525
90787 686365 509
805226 594478 509
475273 632317 509
350864 701712 509
479246 188746 449
39214 949823 525
68129 281167 443
21923 365496 443
128861 225010 386
55627 874417 525
359453 835713 509
992821 692153 525
802567 79465 509
324174 119503 443
944124 34648 525
863069 271343 525
151660 102337 375
288782 359542 441
730440 115525 509
983167 373083 525
87251 638287 509
221209 592554 470
235577 249080 368
917750 60043 525
284991 851585 525
917508 478078 525
49822 670479 509
928504 447672 525
657050 586687 509
168475 308875 443
751750 329174 509
585798 550971 434
926786 772556 525
809584 153949 509
424433 138302 449
911810 517916 525
655983 910430 525
948581 771596 525
882980 849764 432
192008 565462 470
482262 335823 449
769494 256417 509
866196 194383 525
585987 559478 434
159310 938754 525
918315 250321 525
390069 157158 443
346325 93602 443
967473 628257 525
270603 703100 509
776359 709118 468
644025 256551 509
789266 20311 509
334744 646905 509
717605 782555 468
502949 359541 449
3076 530030 470
585716 755286 509
335537 826528 509
220328 653858 509
227231 810629 509
49354 966203 525
579940 522985 452
563360 513837 452
866874 698897 525
548880 263175 470
527307 307947 470
192381 386774 443
755316 910324 525
90640 842964 525
232359 170221 443
738470 565236 509
251565 101272 443
627301 619979 509
752494 139099 509
192128 297631 443
612442 249486 470
994224 410296 525
174221 419661 449
152983 871526 525
469267 98063 449
390303 982856 525
186288 144598 383
476727 430952 444
63771 84013 351
243754 426461 449
193949 171927 365
373858 692845 509
543080 112738 470
760570 357251 509
531740 685131 509
478638 177017 449
480448 126585 449
991658 789684 525
520393 873151 525
638327 630335 416
302214 851847 525
390601 778185 509
801697 922727 525
934676 213983 525
905617 857645 445
249048 794387 509
