759735 877104
843463 508280
265682 763497
830621 83608
363550 47275
560931 517765
737372 462343
999449 826317
185827 479873
891150 956563
611417 126592
189328 886382
541036 426847
691985 642738
97288 123890
275619 775629
9698 603217
142884 37086
581779 124415
753704 106317
227883 445093
163224 288574
87859 489734
677137 308197
999777 370756
446840 488165
841369 170842
25778 519563
286312 301726
61273 113938
336774 338367
552043 300630
189797 88486
675804 71917
376535 845089
480171 602284
228206 585762
258922 805329
531022 147014
196165 42890
816439 107507
519517 295481
499583 106427
479015 188996
585445 801024
730859 420964
672579 212367
832333 168080
317576 716516
745318 575308
808747 781903
145127 665533
703492 953183
897559 365435
947012 125985
670591 496601
859674 62015
469737 634554
232811 635998
273059 241059
608510 808123
365642 548549
578440 445479
178393 258320
46439 453637
897074 723485
179717 597117
251419 771550
367472 494964
124373 608864
671676 575533
447190 122246
528417 104940
722178 728375
923194 240240
854046 235038
120760 736931
588881 431639
968958 907767
58723 25186
104648 785389
364379 492081
300692 639611
894245 81906
106637 367689
974431 830357
197722 674974
474173 646547
623178 34239
282669 728749
552202 522761
428548 55929
105825 234092
720103 974333
197006 67900
541268 282637
259555 164536
57617 574751
637837 501788
310086 427789
236398 418262
651162 478533
694572 341225
482060 152461
417915 512327
731415 909518
640702 35559
221078 912539
706385 481058
301939 123537
715629 240912
602952 261013
733598 685446
650500 520550
847421 966349
737740 598867
308211 30716
545912 251799
129128 441645
627580 689036
438081 303150
778418 486015
703631 973771
606631 144969
635894 305294
803373 954330
566529 825892
769519 602016
702184 326815
424583 826346
537606 52754
839278 750161
979902 878030
267826 730441
641087 441565
874947 140072
143933 61026
690424 39411
722288 407284
127394 593648
143573 808721
273940 625932
633737 158447
746989 929514
967965 586029
267222 550552
961895 293229
162565 941911
753261 439486
196848 823920
625540 572958
323297 704459
678692 362269
427865 365847
508274 554650
39955 518376
906726 372592
253941 877794
91657 370479
463175 645645
239152 874912
516231 36851
40935 641097
70071 968916
430243 317832
894438 572251
302113 108403
946631 614708
141656 598299
163862 967820
990196 247862
471739 849137
493397 58033
445396 875732
861559 426554
308314 826058
552574 824324
284562 882287
748941 723019
750054 837862
915997 15578
820689 478295
124414 39055
404848 636038
654603 278629
749467 875093
103924 428633
346984 732433
175105 844188
540472 375223
190862 352803
863181 603561
166516 955930
235070 120662
819816 10345
462959 783617
349134 356519
241194 935725
25706 465950
632601 71315
582851 947746
866869 529402
293625 841433
736165 493598
438569 840459
516033 671133
784866 814392
874772 285374
820663 588198
900393 330078
426041 7170
289890 468792
257414 46123
391596 434419
40035 456678
465805 871947
883854 523033
452606 527223
97845 683233
387188 98204
644542 903136
422127 978950
959464 908272
911272 71040
724815 97692
825384 310459
103575 688376
