782087 491805
419455 606329
943592 674913
729195 481816
383967 529258
852857 118749
20633 472966
153722 137969
695899 805859
792364 514348
121851 200787
272468 790349
428548 413981
321320 313297
101586 677835
560665 26001
886133 22256
128267 67647
385013 521697
86182 435507
758355 222466
864858 560127
726573 37502
168962 695174
103855 557056
407832 184785
308051 757745
647645 590312
803691 227100
859491 769050
492714 686510
804293 784035
48092 352719
188403 423045
284373 464026
269616 419393
907721 170463
486589 387070
324099 519531
820880 261703
337642 992599
789005 93737
565558 979357
276721 827356
926270 543841
288361 263965
353362 680806
479581 284930
249269 596884
339592 609674
622230 385495
750199 678996
429202 776531
980157 725306
596420 193468
5560 919334
241072 248092
590155 82759
691794 78274
836570 673802
589777 465694
741951 376622
891102 53253
526157 715842
911184 920299
114547 756844
280505 816449
432275 877229
712777 983078
499641 180204
797050 324733
743148 23436
337599 300840
600838 661793
549411 398007
498726 445426
315044 333207
146005 739307
324341 675696
464795 847670
173714 570180
191262 888594
117246 827378
736450 828327
392393 744495
217401 332619
860707 697765
825308 73348
328178 165550
665716 760158
156827 803833
439959 195179
649032 817258
801415 416795
302690 169969
674744 381209
817913 71899
189495 549232
64492 313359
680731 436691
818150 166629
864585 586628
206296 580341
155979 904158
877257 420946
419767 771418
245166 215617
694644 109523
430717 887468
740327 907550
450649 604670
350364 669328
178809 517381
930545 66100
684086 416590
370891 663747
257899 883947
676925 153681
357145 245777
201545 202753
624082 207662
29724 26160
773836 136316
229197 778590
409182 118755
376278 668488
84672 883592
676114 870682
58377 965672
63357 610555
314252 865078
529057 133367
651288 710663
738528 150942
457942 498669
629525 877998
111129 927415
495449 759455
802080 573872
446079 268428
890040 583619
587452 830193
309345 548919
757354 507685
315249 154741
230736 523491
202906 258668
720977 616966
111603 205284
472449 110702
664296 184375
695956 877372
280162 214295
615717 992169
9646 486788
89861 763849
25814 208842
14917 538859
383628 621297
666395 464597
588192 790728
372997 285465
785399 796634
340232 762170
895157 52269
419556 11249
224850 4448
515423 130816
522585 532092
464814 861069
549867 750319
795854 359149
85144 264700
258464 587096
369904 6864
231087 229051
412593 696902
296405 410653
995819 467292
28737 902147
712382 318194
742616 202707
639271 104264
890382 270200
403062 825217
232826 508822
781949 884830
206905 473655
158648 389991
533277 958946
696996 855441
370163 317555
897437 465780
616363 421401
19604 517239
812323 753420
158241 933244
456212 938049
140551 972548
298679 432772
609304 17977
76843 101120
988185 311522
165675 706760
64223 828791
